name: "Star Wars API"
version: "1.0.0"
description: "Contract specification for Star Wars API endpoints"
base_url: "https://swapi.dev/api"
port: 8080

endpoints:
  - path: "/people/1/"
    method: "GET"
    conditions: []
    response:
      status: 200
      headers:
        content-type: "application/json"
      body_template: |
        {
          "name": "Luke Skywalker",
          "height": "172",
          "mass": "77",
          "hair_color": "blond",
          "skin_color": "fair",
          "eye_color": "blue",
          "birth_year": "19BBY",
          "gender": "male",
          "homeworld": "https://swapi.dev/api/planets/1/",
          "films": [
            "https://swapi.dev/api/films/1/",
            "https://swapi.dev/api/films/2/",
            "https://swapi.dev/api/films/3/",
            "https://swapi.dev/api/films/6/"
          ],
          "species": [],
          "vehicles": [
            "https://swapi.dev/api/vehicles/14/",
            "https://swapi.dev/api/vehicles/30/"
          ],
          "starships": [
            "https://swapi.dev/api/starships/12/",
            "https://swapi.dev/api/starships/22/"
          ],
          "created": "2014-12-09T13:50:51.644000Z",
          "edited": "2014-12-20T21:17:56.891000Z",
          "url": "https://swapi.dev/api/people/1/"
        }

  - path: "/people/"
    method: "GET"
    conditions: []
    response:
      status: 200
      headers:
        content-type: "application/json"
      body_template: |
        {
          "count": 82,
          "next": "https://swapi.dev/api/people/?page=2",
          "previous": null,
          "results": [
            {
              "name": "Luke Skywalker",
              "height": "172",
              "mass": "77",
              "hair_color": "blond",
              "skin_color": "fair",
              "eye_color": "blue",
              "birth_year": "19BBY",
              "gender": "male",
              "homeworld": "https://swapi.dev/api/planets/1/",
              "films": [
                "https://swapi.dev/api/films/1/",
                "https://swapi.dev/api/films/2/",
                "https://swapi.dev/api/films/3/",
                "https://swapi.dev/api/films/6/"
              ],
              "species": [],
              "vehicles": [
                "https://swapi.dev/api/vehicles/14/",
                "https://swapi.dev/api/vehicles/30/"
              ],
              "starships": [
                "https://swapi.dev/api/starships/12/",
                "https://swapi.dev/api/starships/22/"
              ],
              "created": "2014-12-09T13:50:51.644000Z",
              "edited": "2014-12-20T21:17:56.891000Z",
              "url": "https://swapi.dev/api/people/1/"
            }
          ]
        }

  - path: "/planets/1/"
    method: "GET"
    conditions: []
    response:
      status: 200
      headers:
        content-type: "application/json"
      body_template: |
        {
          "name": "Tatooine",
          "rotation_period": "23",
          "orbital_period": "304",
          "diameter": "10465",
          "climate": "arid",
          "gravity": "1 standard",
          "terrain": "desert",
          "surface_water": "1",
          "population": "200000",
          "residents": [
            "https://swapi.dev/api/people/1/",
            "https://swapi.dev/api/people/2/",
            "https://swapi.dev/api/people/4/",
            "https://swapi.dev/api/people/6/",
            "https://swapi.dev/api/people/7/",
            "https://swapi.dev/api/people/8/",
            "https://swapi.dev/api/people/9/",
            "https://swapi.dev/api/people/11/",
            "https://swapi.dev/api/people/43/",
            "https://swapi.dev/api/people/62/"
          ],
          "films": [
            "https://swapi.dev/api/films/1/",
            "https://swapi.dev/api/films/3/",
            "https://swapi.dev/api/films/4/",
            "https://swapi.dev/api/films/5/",
            "https://swapi.dev/api/films/6/"
          ],
          "created": "2014-12-09T13:50:49.641000Z",
          "edited": "2014-12-20T20:58:18.411000Z",
          "url": "https://swapi.dev/api/planets/1/"
        }

  - path: "/people/999/"
    method: "GET"
    conditions: []
    response:
      status: 404
      headers:
        content-type: "application/json"
      body_template: |
        {
          "detail": "Not found"
        }
